{
  "images" : [
    {
      "idiom" : "universal",
      "scale" : "1x",
      "filename" : "view-bill-bt.png"
    },
    {
      "idiom" : "universal",
      "scale" : "2x",
      "filename" : "view-bill-bt@2x.png"
    },
    {
      "idiom" : "universal",
      "scale" : "3x",
      "filename" : "view-bill-bt@3x.png"
    }
  ],
  "info" : {
    "version" : 1,
    "author" : "xcode"
  }
}